{
	"info": {
		"_postman_id": "a5decd5d-4484-4f60-a2a1-774e4fcb957c",
		"name": "s35 activity",
		"schema": "https://schema.getpostman.com/json/collection/v2.1.0/collection.json",
		"_exporter_id": "25584875"
	},
	"item": [
		{
			"name": "POST",
			"request": {
				"method": "POST",
				"header": [],
				"body": {
					"mode": "raw",
					"raw": "{\r\n    \"user\": \"bbbbbc\",\r\n    \"password\": \"weoweowe\"\r\n}",
					"options": {
						"raw": {
							"language": "json"
						}
					}
				},
				"url": {
					"raw": "localhost:3001/signup",
					"host": [
						"localhost"
					],
					"port": "3001",
					"path": [
						"signup"
					]
				}
			},
			"response": []
		}
	]
}